sun,00:00,7,19:00,13,22:30,5.2,
mon,00:00,7,08:00,13.1,22:30,5.1,
tue,00:00,7,08:00,13.2,22:30,5,
wed,00:00,7,08:00,13.3,22:30,4.9,
thu,00:00,7,08:00,13.4,22:30,4.8,
fri,00:00,7,08:00,13.5,22:30,4.7,
sat,00:00,7,08:00,13.6,22:30,4.6,
